#
# There is insufficient memory for the Java Runtime Environment to continue.
# Native memory allocation (mmap) failed to map 154140672 bytes for committing reserved memory.
# Possible reasons:
#   The system is out of physical RAM or swap space
#   In 32 bit mode, the process size limit was hit
# Possible solutions:
#   Reduce memory load on the system
#   Increase physical memory or swap space
#   Check if swap backing store is full
#   Use 64 bit Java on a 64 bit OS
#   Decrease Java heap size (-Xmx/-Xms)
#   Decrease number of Java threads
#   Decrease Java thread stack sizes (-Xss)
#   Set larger code cache with -XX:ReservedCodeCacheSize=
# This output file may be truncated or incomplete.
#
#  Out of Memory Error (os_linux.cpp:2640), pid=27472, tid=0x00007fe536918700
#
# JRE version: Java(TM) SE Runtime Environment (8.0_144-b01) (build 1.8.0_144-b01)
# Java VM: Java HotSpot(TM) 64-Bit Server VM (25.144-b01 mixed mode linux-amd64 compressed oops)
# Failed to write core dump. Core dumps have been disabled. To enable core dumping, try "ulimit -c unlimited" before starting Java again
#

---------------  T H R E A D  ---------------

Current thread (0x00007fe554078800):  VMThread [stack: 0x00007fe536818000,0x00007fe536919000] [id=27479]

Stack: [0x00007fe536818000,0x00007fe536919000],  sp=0x00007fe5369170b0,  free space=1020k
Native frames: (J=compiled Java code, j=interpreted, Vv=VM code, C=native code)
V  [libjvm.so+0xacb18a]  VMError::report_and_die()+0x2ba
V  [libjvm.so+0x4ff4db]  report_vm_out_of_memory(char const*, int, unsigned long, VMErrorType, char const*)+0x8b
V  [libjvm.so+0x927d23]  os::Linux::commit_memory_impl(char*, unsigned long, bool)+0x103
V  [libjvm.so+0x928279]  os::pd_commit_memory(char*, unsigned long, unsigned long, bool)+0x29
V  [libjvm.so+0x92249a]  os::commit_memory(char*, unsigned long, unsigned long, bool)+0x2a
V  [libjvm.so+0x996ff3]  PSVirtualSpace::expand_by(unsigned long)+0x53
V  [libjvm.so+0x9983f8]  PSYoungGen::resize_generation(unsigned long, unsigned long)+0xf8
V  [libjvm.so+0x997552]  PSYoungGen::resize(unsigned long, unsigned long)+0x22
V  [libjvm.so+0x99482b]  PSScavenge::invoke_no_policy()+0xf3b
V  [libjvm.so+0x98fad5]  PSParallelCompact::invoke(bool)+0x85
V  [libjvm.so+0x485f14]  CollectedHeap::collect_as_vm_thread(GCCause::Cause)+0x114
V  [libjvm.so+0xacc601]  VM_CollectForMetadataAllocation::doit()+0x161
V  [libjvm.so+0xad4685]  VM_Operation::evaluate()+0x55
V  [libjvm.so+0xad2a5a]  VMThread::evaluate_operation(VM_Operation*)+0xba
V  [libjvm.so+0xad2dde]  VMThread::loop()+0x1ce
V  [libjvm.so+0xad3250]  VMThread::run()+0x70
V  [libjvm.so+0x92a338]  java_start(Thread*)+0x108

VM_Operation (0x00007fe55b4b1400): CollectForMetadataAllocation, mode: safepoint, requested by thread 0x00007fe55400a800


---------------  P R O C E S S  ---------------

Java Threads: ( => current thread )
  0x00007fe5545c3000 JavaThread "process reaper" daemon [_thread_blocked, id=27489, stack(0x00007fe5358ef000,0x00007fe535928000)]
  0x00007fe5540cb800 JavaThread "Service Thread" daemon [_thread_blocked, id=27486, stack(0x00007fe535e29000,0x00007fe535f2a000)]
  0x00007fe5540be000 JavaThread "C1 CompilerThread2" daemon [_thread_blocked, id=27485, stack(0x00007fe535f2a000,0x00007fe53602b000)]
  0x00007fe5540bc800 JavaThread "C2 CompilerThread1" daemon [_thread_in_native, id=27484, stack(0x00007fe53602b000,0x00007fe53612c000)]
  0x00007fe5540b9800 JavaThread "C2 CompilerThread0" daemon [_thread_in_native, id=27483, stack(0x00007fe53612c000,0x00007fe53622d000)]
  0x00007fe5540b8000 JavaThread "Signal Dispatcher" daemon [_thread_blocked, id=27482, stack(0x00007fe53622d000,0x00007fe53632e000)]
  0x00007fe554084800 JavaThread "Finalizer" daemon [_thread_blocked, id=27481, stack(0x00007fe536616000,0x00007fe536717000)]
  0x00007fe554080000 JavaThread "Reference Handler" daemon [_thread_blocked, id=27480, stack(0x00007fe536717000,0x00007fe536818000)]
  0x00007fe55400a800 JavaThread "main" [_thread_blocked, id=27474, stack(0x00007fe55b3b6000,0x00007fe55b4b7000)]

Other Threads:
=>0x00007fe554078800 VMThread [stack: 0x00007fe536818000,0x00007fe536919000] [id=27479]
  0x00007fe5540de000 WatcherThread [stack: 0x00007fe535d28000,0x00007fe535e29000] [id=27487]

VM state:at safepoint (normal execution)

VM Mutex/Monitor currently owned by a thread:  ([mutex/lock_event])
[0x00007fe554006eb0] Threads_lock - owner thread: 0x00007fe554078800
[0x00007fe5540073b0] Heap_lock - owner thread: 0x00007fe55400a800

Heap:
 PSYoungGen      total 139776K, used 9709K [0x00000000d6580000, 0x00000000df880000, 0x0000000100000000)
  eden space 130048K, 0% used [0x00000000d6580000,0x00000000d6580000,0x00000000de480000)
  from space 9728K, 99% used [0x00000000de480000,0x00000000dedfb528,0x00000000dee00000)
  to   space 8704K, 0% used [0x00000000dee00000,0x00000000dee00000,0x00000000df680000)
 ParOldGen       total 86016K, used 28289K [0x0000000083000000, 0x0000000088400000, 0x00000000d6580000)
  object space 86016K, 32% used [0x0000000083000000,0x0000000084ba0730,0x0000000088400000)
 Metaspace       used 20729K, capacity 21242K, committed 21296K, reserved 1069056K
  class space    used 2420K, capacity 2573K, committed 2608K, reserved 1048576K

Card table byte_map: [0x00007fe544c17000,0x00007fe545000000] byte_map_base: 0x00007fe5447ff000

Marking Bits: (ParMarkBitMap*) 0x00007fe55a87adc0
 Begin Bits: [0x00007fe53c180000, 0x00007fe53e0c0000)
 End Bits:   [0x00007fe53e0c0000, 0x00007fe540000000)

Polling page: 0x00007fe55b4e4000

CodeCache: size=245760Kb used=14622Kb max_used=14622Kb free=231137Kb
 bounds [0x00007fe545000000, 0x00007fe545e60000, 0x00007fe554000000]
 total_blobs=4353 nmethods=3984 adapters=283
 compilation: enabled

Compilation events (10 events):
Event: 5.131 Thread 0x00007fe5540be000 4021       2       com.sun.tools.javac.comp.Resolve$MethodResolutionContext::deferredAttrContext (62 bytes)
Event: 5.131 Thread 0x00007fe5540be000 nmethod 4021 0x00007fe545e4f550 code [0x00007fe545e4f6e0, 0x00007fe545e4f978]
Event: 5.131 Thread 0x00007fe5540be000 4020       2       com.sun.tools.javac.util.JCDiagnostic::<init> (79 bytes)
Event: 5.132 Thread 0x00007fe5540be000 nmethod 4020 0x00007fe545e4fb50 code [0x00007fe545e4fcc0, 0x00007fe545e4fff8]
Event: 5.132 Thread 0x00007fe5540be000 4023       2       com.sun.tools.javac.tree.JCTree::getTree (2 bytes)
Event: 5.132 Thread 0x00007fe5540be000 nmethod 4023 0x00007fe545e50150 code [0x00007fe545e502a0, 0x00007fe545e503f0]
Event: 5.132 Thread 0x00007fe5540be000 4022   !   2       com.sun.tools.javac.code.Symbol$VarSymbol::getConstValue (73 bytes)
Event: 5.132 Thread 0x00007fe5540be000 nmethod 4022 0x00007fe545e50490 code [0x00007fe545e50620, 0x00007fe545e50998]
Event: 5.141 Thread 0x00007fe5540be000 4024       2       com.sun.tools.javac.comp.Flow$BaseAnalyzer::scan (27 bytes)
Event: 5.141 Thread 0x00007fe5540be000 nmethod 4024 0x00007fe545e50b10 code [0x00007fe545e50c80, 0x00007fe545e50e28]

GC Heap History (10 events):
Event: 1.296 GC heap after
Heap after GC invocations=2 (full 0):
 PSYoungGen      total 37888K, used 5092K [0x00000000d6580000, 0x00000000daf80000, 0x0000000100000000)
  eden space 32768K, 0% used [0x00000000d6580000,0x00000000d6580000,0x00000000d8580000)
  from space 5120K, 99% used [0x00000000d8a80000,0x00000000d8f79090,0x00000000d8f80000)
  to   space 5120K, 0% used [0x00000000d8580000,0x00000000d8580000,0x00000000d8a80000)
 ParOldGen       total 86016K, used 2460K [0x0000000083000000, 0x0000000088400000, 0x00000000d6580000)
  object space 86016K, 2% used [0x0000000083000000,0x0000000083267248,0x0000000088400000)
 Metaspace       used 13055K, capacity 13356K, committed 13568K, reserved 1060864K
  class space    used 1609K, capacity 1722K, committed 1792K, reserved 1048576K
}
Event: 1.675 GC heap before
{Heap before GC invocations=3 (full 0):
 PSYoungGen      total 37888K, used 37860K [0x00000000d6580000, 0x00000000daf80000, 0x0000000100000000)
  eden space 32768K, 100% used [0x00000000d6580000,0x00000000d8580000,0x00000000d8580000)
  from space 5120K, 99% used [0x00000000d8a80000,0x00000000d8f79090,0x00000000d8f80000)
  to   space 5120K, 0% used [0x00000000d8580000,0x00000000d8580000,0x00000000d8a80000)
 ParOldGen       total 86016K, used 2460K [0x0000000083000000, 0x0000000088400000, 0x00000000d6580000)
  object space 86016K, 2% used [0x0000000083000000,0x0000000083267248,0x0000000088400000)
 Metaspace       used 13488K, capacity 13866K, committed 14080K, reserved 1060864K
  class space    used 1631K, capacity 1759K, committed 1792K, reserved 1048576K
Event: 1.690 GC heap after
Heap after GC invocations=3 (full 0):
 PSYoungGen      total 37888K, used 5088K [0x00000000d6580000, 0x00000000daf80000, 0x0000000100000000)
  eden space 32768K, 0% used [0x00000000d6580000,0x00000000d6580000,0x00000000d8580000)
  from space 5120K, 99% used [0x00000000d8580000,0x00000000d8a78020,0x00000000d8a80000)
  to   space 5120K, 0% used [0x00000000daa80000,0x00000000daa80000,0x00000000daf80000)
 ParOldGen       total 86016K, used 3754K [0x0000000083000000, 0x0000000088400000, 0x00000000d6580000)
  object space 86016K, 4% used [0x0000000083000000,0x00000000833aa900,0x0000000088400000)
 Metaspace       used 13488K, capacity 13866K, committed 14080K, reserved 1060864K
  class space    used 1631K, capacity 1759K, committed 1792K, reserved 1048576K
}
Event: 1.999 GC heap before
{Heap before GC invocations=4 (full 0):
 PSYoungGen      total 37888K, used 37856K [0x00000000d6580000, 0x00000000daf80000, 0x0000000100000000)
  eden space 32768K, 100% used [0x00000000d6580000,0x00000000d8580000,0x00000000d8580000)
  from space 5120K, 99% used [0x00000000d8580000,0x00000000d8a78020,0x00000000d8a80000)
  to   space 5120K, 0% used [0x00000000daa80000,0x00000000daa80000,0x00000000daf80000)
 ParOldGen       total 86016K, used 3754K [0x0000000083000000, 0x0000000088400000, 0x00000000d6580000)
  object space 86016K, 4% used [0x0000000083000000,0x00000000833aa900,0x0000000088400000)
 Metaspace       used 13652K, capacity 14012K, committed 14080K, reserved 1060864K
  class space    used 1633K, capacity 1762K, committed 1792K, reserved 1048576K
Event: 2.008 GC heap after
Heap after GC invocations=4 (full 0):
 PSYoungGen      total 70656K, used 5104K [0x00000000d6580000, 0x00000000daf80000, 0x0000000100000000)
  eden space 65536K, 0% used [0x00000000d6580000,0x00000000d6580000,0x00000000da580000)
  from space 5120K, 99% used [0x00000000daa80000,0x00000000daf7c010,0x00000000daf80000)
  to   space 5120K, 0% used [0x00000000da580000,0x00000000da580000,0x00000000daa80000)
 ParOldGen       total 86016K, used 4918K [0x0000000083000000, 0x0000000088400000, 0x00000000d6580000)
  object space 86016K, 5% used [0x0000000083000000,0x00000000834cd920,0x0000000088400000)
 Metaspace       used 13652K, capacity 14012K, committed 14080K, reserved 1060864K
  class space    used 1633K, capacity 1762K, committed 1792K, reserved 1048576K
}
Event: 2.581 GC heap before
{Heap before GC invocations=5 (full 0):
 PSYoungGen      total 70656K, used 70640K [0x00000000d6580000, 0x00000000daf80000, 0x0000000100000000)
  eden space 65536K, 100% used [0x00000000d6580000,0x00000000da580000,0x00000000da580000)
  from space 5120K, 99% used [0x00000000daa80000,0x00000000daf7c010,0x00000000daf80000)
  to   space 5120K, 0% used [0x00000000da580000,0x00000000da580000,0x00000000daa80000)
 ParOldGen       total 86016K, used 4918K [0x0000000083000000, 0x0000000088400000, 0x00000000d6580000)
  object space 86016K, 5% used [0x0000000083000000,0x00000000834cd920,0x0000000088400000)
 Metaspace       used 14378K, capacity 14714K, committed 14976K, reserved 1062912K
  class space    used 1702K, capacity 1803K, committed 1920K, reserved 1048576K
Event: 2.600 GC heap after
Heap after GC invocations=5 (full 0):
 PSYoungGen      total 70656K, used 5088K [0x00000000d6580000, 0x00000000df680000, 0x0000000100000000)
  eden space 65536K, 0% used [0x00000000d6580000,0x00000000d6580000,0x00000000da580000)
  from space 5120K, 99% used [0x00000000da580000,0x00000000daa78020,0x00000000daa80000)
  to   space 8704K, 0% used [0x00000000dee00000,0x00000000dee00000,0x00000000df680000)
 ParOldGen       total 86016K, used 8081K [0x0000000083000000, 0x0000000088400000, 0x00000000d6580000)
  object space 86016K, 9% used [0x0000000083000000,0x00000000837e4640,0x0000000088400000)
 Metaspace       used 14378K, capacity 14714K, committed 14976K, reserved 1062912K
  class space    used 1702K, capacity 1803K, committed 1920K, reserved 1048576K
}
Event: 3.148 GC heap before
{Heap before GC invocations=6 (full 0):
 PSYoungGen      total 70656K, used 70624K [0x00000000d6580000, 0x00000000df680000, 0x0000000100000000)
  eden space 65536K, 100% used [0x00000000d6580000,0x00000000da580000,0x00000000da580000)
  from space 5120K, 99% used [0x00000000da580000,0x00000000daa78020,0x00000000daa80000)
  to   space 8704K, 0% used [0x00000000dee00000,0x00000000dee00000,0x00000000df680000)
 ParOldGen       total 86016K, used 8081K [0x0000000083000000, 0x0000000088400000, 0x00000000d6580000)
  object space 86016K, 9% used [0x0000000083000000,0x00000000837e4640,0x0000000088400000)
 Metaspace       used 17264K, capacity 17786K, committed 17920K, reserved 1064960K
  class space    used 2050K, capacity 2189K, committed 2304K, reserved 1048576K
Event: 3.166 GC heap after
Heap after GC invocations=6 (full 0):
 PSYoungGen      total 138752K, used 8692K [0x00000000d6580000, 0x00000000df880000, 0x0000000100000000)
  eden space 130048K, 0% used [0x00000000d6580000,0x00000000d6580000,0x00000000de480000)
  from space 8704K, 99% used [0x00000000dee00000,0x00000000df67d300,0x00000000df680000)
  to   space 9728K, 0% used [0x00000000de480000,0x00000000de480000,0x00000000dee00000)
 ParOldGen       total 86016K, used 8651K [0x0000000083000000, 0x0000000088400000, 0x00000000d6580000)
  object space 86016K, 10% used [0x0000000083000000,0x0000000083872c68,0x0000000088400000)
 Metaspace       used 17264K, capacity 17786K, committed 17920K, reserved 1064960K
  class space    used 2050K, capacity 2189K, committed 2304K, reserved 1048576K
}
Event: 5.148 GC heap before
{Heap before GC invocations=7 (full 0):
 PSYoungGen      total 138752K, used 83733K [0x00000000d6580000, 0x00000000df880000, 0x0000000100000000)
  eden space 130048K, 57% used [0x00000000d6580000,0x00000000daec83b8,0x00000000de480000)
  from space 8704K, 99% used [0x00000000dee00000,0x00000000df67d300,0x00000000df680000)
  to   space 9728K, 0% used [0x00000000de480000,0x00000000de480000,0x00000000dee00000)
 ParOldGen       total 86016K, used 8651K [0x0000000083000000, 0x0000000088400000, 0x00000000d6580000)
  object space 86016K, 10% used [0x0000000083000000,0x0000000083872c68,0x0000000088400000)
 Metaspace       used 20729K, capacity 21242K, committed 21296K, reserved 1069056K
  class space    used 2420K, capacity 2573K, committed 2608K, reserved 1048576K

Deoptimization events (10 events):
Event: 4.602 Thread 0x00007fe55400a800 Uncommon trap: reason=array_check action=maybe_recompile pc=0x00007fe545cf52b4 method=java.util.ComparableTimSort.binarySort([Ljava/lang/Object;III)V @ 215
Event: 4.602 Thread 0x00007fe55400a800 Uncommon trap: reason=array_check action=maybe_recompile pc=0x00007fe545d02ea0 method=java.util.ComparableTimSort.binarySort([Ljava/lang/Object;III)V @ 215
Event: 4.623 Thread 0x00007fe55400a800 Uncommon trap: reason=array_check action=maybe_recompile pc=0x00007fe545cf52b4 method=java.util.ComparableTimSort.binarySort([Ljava/lang/Object;III)V @ 215
Event: 4.633 Thread 0x00007fe55400a800 Uncommon trap: reason=array_check action=maybe_recompile pc=0x00007fe545d083d4 method=java.util.ComparableTimSort.binarySort([Ljava/lang/Object;III)V @ 183
Event: 4.638 Thread 0x00007fe55400a800 Uncommon trap: reason=array_check action=maybe_recompile pc=0x00007fe545d083d4 method=java.util.ComparableTimSort.binarySort([Ljava/lang/Object;III)V @ 183
Event: 4.869 Thread 0x00007fe55400a800 Uncommon trap: reason=unstable_if action=reinterpret pc=0x00007fe545cdee94 method=java.lang.Integer.valueOf(I)Ljava/lang/Integer; @ 3
Event: 5.079 Thread 0x00007fe55400a800 Uncommon trap: reason=bimorphic action=maybe_recompile pc=0x00007fe54566ea30 method=java.util.regex.Pattern$CharProperty.match(Ljava/util/regex/Matcher;ILjava/lang/CharSequence;)Z @ 37
Event: 5.081 Thread 0x00007fe55400a800 Uncommon trap: reason=bimorphic action=maybe_recompile pc=0x00007fe54566ea30 method=java.util.regex.Pattern$CharProperty.match(Ljava/util/regex/Matcher;ILjava/lang/CharSequence;)Z @ 37
Event: 5.087 Thread 0x00007fe55400a800 Uncommon trap: reason=bimorphic action=maybe_recompile pc=0x00007fe54566ea30 method=java.util.regex.Pattern$CharProperty.match(Ljava/util/regex/Matcher;ILjava/lang/CharSequence;)Z @ 37
Event: 5.087 Thread 0x00007fe55400a800 Uncommon trap: reason=bimorphic action=maybe_recompile pc=0x00007fe54566ea30 method=java.util.regex.Pattern$CharProperty.match(Ljava/util/regex/Matcher;ILjava/lang/CharSequence;)Z @ 37

Internal exceptions (10 events):
Event: 1.243 Thread 0x00007fe55400a800 Implicit null exception at 0x00007fe5452adaef to 0x00007fe5452adb59
Event: 1.320 Thread 0x00007fe55400a800 Implicit null exception at 0x00007fe5454f5fbf to 0x00007fe5454f627d
Event: 2.078 Thread 0x00007fe55400a800 Implicit null exception at 0x00007fe5453688db to 0x00007fe545369035
Event: 2.157 Thread 0x00007fe55400a800 Exception <a 'java/lang/NoClassDefFoundError': org/slf4j/Logger> (0x00000000d7687770) thrown at [/HUDSON3/workspace/8-2-build-linux-amd64/jdk8u144/9417/hotspot/src/share/vm/oops/constantPool.cpp, line 235]
Event: 2.777 Thread 0x00007fe55400a800 Exception <a 'java/lang/NoClassDefFoundError': org/slf4j/Logger> (0x00000000d80c4ac0) thrown at [/HUDSON3/workspace/8-2-build-linux-amd64/jdk8u144/9417/hotspot/src/share/vm/oops/constantPool.cpp, line 235]
Event: 2.847 Thread 0x00007fe55400a800 Exception <a 'java/lang/NoClassDefFoundError': org/slf4j/Logger> (0x00000000d88fb050) thrown at [/HUDSON3/workspace/8-2-build-linux-amd64/jdk8u144/9417/hotspot/src/share/vm/oops/constantPool.cpp, line 235]
Event: 2.967 Thread 0x00007fe55400a800 Exception <a 'java/lang/NoClassDefFoundError': org/slf4j/Logger> (0x00000000d9ccb000) thrown at [/HUDSON3/workspace/8-2-build-linux-amd64/jdk8u144/9417/hotspot/src/share/vm/oops/constantPool.cpp, line 235]
Event: 3.013 Thread 0x00007fe55400a800 Exception <a 'java/lang/ClassNotFoundException': com/sun/tools/javac/api/JavacTool> (0x00000000da0d16c8) thrown at [/HUDSON3/workspace/8-2-build-linux-amd64/jdk8u144/9417/hotspot/src/share/vm/classfile/systemDictionary.cpp, line 210]
Event: 4.489 Thread 0x00007fe55400a800 Exception <a 'java/io/FileNotFoundException'> (0x00000000d8015198) thrown at [/HUDSON3/workspace/8-2-build-linux-amd64/jdk8u144/9417/hotspot/src/share/vm/prims/jni.cpp, line 709]
Event: 4.506 Thread 0x00007fe55400a800 Exception <a 'java/io/FileNotFoundException'> (0x00000000d804a1c8) thrown at [/HUDSON3/workspace/8-2-build-linux-amd64/jdk8u144/9417/hotspot/src/share/vm/prims/jni.cpp, line 709]

Events (10 events):
Event: 5.138 loading class com/sun/tools/javac/util/Bits done
Event: 5.139 loading class com/sun/tools/javac/util/Bits$BitsState
Event: 5.139 loading class com/sun/tools/javac/util/Bits$BitsState done
Event: 5.139 loading class com/sun/tools/javac/util/Bits$1
Event: 5.139 loading class com/sun/tools/javac/util/Bits$1 done
Event: 5.140 loading class com/sun/tools/javac/comp/Flow$2
Event: 5.140 loading class com/sun/tools/javac/comp/Flow$2 done
Event: 5.141 loading class com/sun/tools/javac/comp/Flow$FlowAnalyzer
Event: 5.141 loading class com/sun/tools/javac/comp/Flow$FlowAnalyzer done
Event: 5.147 Executing VM operation: CollectForMetadataAllocation


Dynamic libraries:
00400000-00401000 r-xp 00000000 08:01 5386448                            /usr/lib/jvm/java-8-oracle/bin/java
00600000-00601000 rw-p 00000000 08:01 5386448                            /usr/lib/jvm/java-8-oracle/bin/java
00735000-00756000 rw-p 00000000 00:00 0                                  [heap]
83000000-88400000 rw-p 00000000 00:00 0 
88400000-d6580000 ---p 00000000 00:00 0 
d6580000-df880000 rw-p 00000000 00:00 0 
e8b80000-100000000 ---p 00000000 00:00 0 
100000000-10028c000 rw-p 00000000 00:00 0 
10028c000-140000000 ---p 00000000 00:00 0 
7fe500000000-7fe500021000 rw-p 00000000 00:00 0 
7fe500021000-7fe504000000 ---p 00000000 00:00 0 
7fe504fff000-7fe508000000 rw-p 00000000 00:00 0 
7fe508000000-7fe508021000 rw-p 00000000 00:00 0 
7fe508021000-7fe50c000000 ---p 00000000 00:00 0 
7fe50c000000-7fe50c021000 rw-p 00000000 00:00 0 
7fe50c021000-7fe510000000 ---p 00000000 00:00 0 
7fe510000000-7fe511680000 rw-p 00000000 00:00 0 
7fe511680000-7fe514000000 ---p 00000000 00:00 0 
7fe514000000-7fe5149b7000 rw-p 00000000 00:00 0 
7fe5149b7000-7fe518000000 ---p 00000000 00:00 0 
7fe518000000-7fe518021000 rw-p 00000000 00:00 0 
7fe518021000-7fe51c000000 ---p 00000000 00:00 0 
7fe51c000000-7fe51d6be000 rw-p 00000000 00:00 0 
7fe51d6be000-7fe520000000 ---p 00000000 00:00 0 
7fe520000000-7fe520021000 rw-p 00000000 00:00 0 
7fe520021000-7fe524000000 ---p 00000000 00:00 0 
7fe524000000-7fe524021000 rw-p 00000000 00:00 0 
7fe524021000-7fe528000000 ---p 00000000 00:00 0 
7fe528000000-7fe528021000 rw-p 00000000 00:00 0 
7fe528021000-7fe52c000000 ---p 00000000 00:00 0 
7fe52c000000-7fe52c296000 rw-p 00000000 00:00 0 
7fe52c296000-7fe530000000 ---p 00000000 00:00 0 
7fe530000000-7fe530021000 rw-p 00000000 00:00 0 
7fe530021000-7fe534000000 ---p 00000000 00:00 0 
7fe5346f6000-7fe534736000 rw-p 00000000 00:00 0 
7fe534736000-7fe5348f6000 ---p 00000000 00:00 0 
7fe5348f6000-7fe5348f8000 r--s 0000d000 08:01 1844887                    /home/pop/.m2/repository/com/fasterxml/classmate/0.8.0/classmate-0.8.0.jar
7fe5348f8000-7fe5348fa000 r--s 0000d000 08:01 1844885                    /home/pop/.m2/repository/org/jboss/logging/jboss-logging/3.1.1.GA/jboss-logging-3.1.1.GA.jar
7fe5348fa000-7fe534907000 r--s 0007f000 08:01 1844884                    /home/pop/.m2/repository/org/hibernate/hibernate-validator/5.0.1.Final/hibernate-validator-5.0.1.Final.jar
7fe534907000-7fe53490b000 r--s 0000c000 08:01 1836745                    /home/pop/.m2/repository/javax/validation/validation-api/1.1.0.Final/validation-api-1.1.0.Final.jar
7fe53490b000-7fe53490d000 r--s 0000e000 08:01 2622586                    /home/pop/.m2/repository/javax/activation/activation/1.1/activation-1.1.jar
7fe53490d000-7fe534914000 r--s 0006a000 08:01 2622583                    /home/pop/.m2/repository/javax/mail/mail/1.4.3/mail-1.4.3.jar
7fe534914000-7fe53491e000 r--s 0005c000 08:01 2636552                    /home/pop/.m2/repository/javax/servlet/jstl/1.2/jstl-1.2.jar
7fe53491e000-7fe534927000 r--s 000e9000 08:01 2753287                    /home/pop/.m2/repository/mysql/mysql-connector-java/5.1.40/mysql-connector-java-5.1.40.jar
7fe534927000-7fe53492a000 r--s 00015000 08:01 2753286                    /home/pop/.m2/repository/commons-pool/commons-pool/1.5.4/commons-pool-1.5.4.jar
7fe53492a000-7fe53492d000 r--s 00025000 08:01 2753285                    /home/pop/.m2/repository/commons-dbcp/commons-dbcp/1.4/commons-dbcp-1.4.jar
7fe53492d000-7fe534934000 r--s 00037000 08:01 2496516                    /home/pop/.m2/repository/org/springframework/spring-tx/4.1.3.RELEASE/spring-tx-4.1.3.RELEASE.jar
7fe534934000-7fe53493e000 r--s 0005f000 08:01 2496515                    /home/pop/.m2/repository/org/springframework/spring-jdbc/4.1.3.RELEASE/spring-jdbc-4.1.3.RELEASE.jar
7fe53493e000-7fe534942000 r--s 0002e000 08:01 1720991                    /home/pop/.m2/repository/org/springframework/spring-expression/4.0.2.RELEASE/spring-expression-4.0.2.RELEASE.jar
7fe534942000-7fe53494f000 r--s 00095000 08:01 2636550                    /home/pop/.m2/repository/org/springframework/spring-webmvc/4.0.2.RELEASE/spring-webmvc-4.0.2.RELEASE.jar
7fe53494f000-7fe534951000 r--s 00000000 08:01 1706345                    /home/pop/.m2/repository/aopalliance/aopalliance/1.0/aopalliance-1.0.jar
7fe534951000-7fe53495a000 r--s 0004e000 08:01 1720989                    /home/pop/.m2/repository/org/springframework/spring-aop/4.0.2.RELEASE/spring-aop-4.0.2.RELEASE.jar
7fe53495a000-7fe534969000 r--s 00094000 08:01 1720986                    /home/pop/.m2/repository/org/springframework/spring-web/4.0.2.RELEASE/spring-web-4.0.2.RELEASE.jar
7fe534969000-7fe53497d000 r--s 000d7000 08:01 1720985                    /home/pop/.m2/repository/org/springframework/spring-core/4.0.2.RELEASE/spring-core-4.0.2.RELEASE.jar
7fe53497d000-7fe53499f000 r--s 00120000 08:01 1844882                    /home/pop/.m2/repository/javax/javaee-web-api/7.0/javaee-web-api-7.0.jar
7fe53499f000-7fe5349a3000 r--s 00027000 08:01 1706351                    /home/pop/.m2/repository/commons-io/commons-io/2.2/commons-io-2.2.jar
7fe5349a3000-7fe5349a5000 r--s 0000f000 08:01 2622589                    /home/pop/.m2/repository/commons-fileupload/commons-fileupload/1.3.1/commons-fileupload-1.3.1.jar
7fe5349a5000-7fe5349b5000 r--s 00088000 08:01 1836732                    /home/pop/.m2/repository/joda-time/joda-time/2.8.1/joda-time-2.8.1.jar
7fe5349b5000-7fe5349bb000 r--s 00033000 08:01 1181788                    /home/pop/.m2/repository/commons-codec/commons-codec/1.6/commons-codec-1.6.jar
7fe5349bb000-7fe5349c2000 r--s 0003f000 08:01 1836726                    /home/pop/.m2/repository/org/apache/httpcomponents/httpcore/4.3.3/httpcore-4.3.3.jar
7fe5349c2000-7fe5349ce000 r--s 00085000 08:01 1706369                    /home/pop/.m2/repository/org/apache/httpcomponents/httpclient/4.3.6/httpclient-4.3.6.jar
7fe5349ce000-7fe5349d9000 r--s 00074000 08:01 1706360                    /home/pop/.m2/repository/com/amazonaws/aws-java-sdk-core/1.10.12/aws-java-sdk-core-1.10.12.jar
7fe5349d9000-7fe5349e1000 r--s 00068000 08:01 2622581                    /home/pop/.m2/repository/com/amazonaws/aws-java-sdk-devicefarm/1.10.12/aws-java-sdk-devicefarm-1.10.12.jar
7fe5349e1000-7fe5349e5000 r--s 0001f000 08:01 2622580                    /home/pop/.m2/repository/com/amazonaws/aws-java-sdk-codecommit/1.10.12/aws-java-sdk-codecommit-1.10.12.jar
7fe5349e5000-7fe5349e9000 r--s 00026000 08:01 2622579                    /home/pop/.m2/repository/com/amazonaws/aws-java-sdk-efs/1.10.12/aws-java-sdk-efs-1.10.12.jar
7fe5349e9000-7fe5349ef000 r--s 00033000 08:01 2622577                    /home/pop/.m2/repository/com/amazonaws/aws-java-sdk-directory/1.10.12/aws-java-sdk-directory-1.10.12.jar
7fe5349ef000-7fe5349f7000 r--s 0004b000 08:01 2622572                    /home/pop/.m2/repository/com/amazonaws/aws-java-sdk-machinelearning/1.10.12/aws-java-sdk-machinelearning-1.10.12.jar
7fe5349f7000-7fe5349fb000 r--s 00028000 08:01 2622570                    /home/pop/.m2/repository/com/amazonaws/aws-java-sdk-workspaces/1.10.12/aws-java-sdk-workspaces-1.10.12.jar
7fe5349fb000-7fe534a00000 r--s 00029000 08:01 2622571                    /home/pop/.m2/repository/com/amazonaws/aws-java-sdk-ssm/1.10.12/aws-java-sdk-ssm-1.10.12.jar
7fe534a00000-7fe534a04000 r--s 00027000 08:01 2622569                    /home/pop/.m2/repository/com/amazonaws/aws-java-sdk-cloudhsm/1.10.12/aws-java-sdk-cloudhsm-1.10.12.jar
7fe534a04000-7fe534a0c000 r--s 00055000 08:01 2622567                    /home/pop/.m2/repository/com/amazonaws/aws-java-sdk-ecs/1.10.12/aws-java-sdk-ecs-1.10.12.jar
7fe534a0c000-7fe534a12000 r--s 00033000 08:01 2622563                    /home/pop/.m2/repository/com/amazonaws/aws-java-sdk-lambda/1.10.12/aws-java-sdk-lambda-1.10.12.jar
7fe534a12000-7fe534a17000 r--s 00026000 08:01 2622561                    /home/pop/.m2/repository/com/amazonaws/aws-java-sdk-config/1.10.12/aws-java-sdk-config-1.10.12.jar
7fe534a17000-7fe534a1d000 r--s 0003a000 08:01 1836736                    /home/pop/.m2/repository/com/amazonaws/aws-java-sdk-kms/1.10.12/aws-java-sdk-kms-1.10.12.jar
7fe534a1d000-7fe534a25000 r--s 0006b000 08:01 2622560                    /home/pop/.m2/repository/com/amazonaws/aws-java-sdk-codepipeline/1.10.12/aws-java-sdk-codepipeline-1.10.12.jar
7fe534a25000-7fe534a2f000 r--s 00076000 08:01 2622556                    /home/pop/.m2/repository/com/amazonaws/aws-java-sdk-codedeploy/1.10.12/aws-java-sdk-codedeploy-1.10.12.jar
7fe534a2f000-7fe534a3c000 r--s 00075000 08:01 2622557                    /home/pop/.m2/repository/com/amazonaws/aws-java-sdk-swf-libraries/1.10.12/aws-java-sdk-swf-libraries-1.10.12.jar
7fe534a3c000-7fe534a3e000 r--s 0000a000 08:01 2622554                    /home/pop/.m2/repository/com/amazonaws/aws-java-sdk-cloudwatchmetrics/1.10.12/aws-java-sdk-cloudwatchmetrics-1.10.12.jar
7fe534a3e000-7fe534a4e000 r--s 00092000 08:01 2622550                    /home/pop/.m2/repository/com/amazonaws/aws-java-sdk-cloudsearch/1.10.12/aws-java-sdk-cloudsearch-1.10.12.jar
7fe534a4e000-7fe534a59000 r--s 0006b000 08:01 2622549                    /home/pop/.m2/repository/com/amazonaws/aws-java-sdk-autoscaling/1.10.12/aws-java-sdk-autoscaling-1.10.12.jar
7fe534a59000-7fe534a5f000 r--s 00031000 08:01 2622547                    /home/pop/.m2/repository/com/amazonaws/aws-java-sdk-ses/1.10.12/aws-java-sdk-ses-1.10.12.jar
7fe534a5f000-7fe534a6d000 r--s 000ad000 08:01 2622545                    /home/pop/.m2/repository/com/amazonaws/aws-java-sdk-opsworks/1.10.12/aws-java-sdk-opsworks-1.10.12.jar
7fe534a6d000-7fe534a71000 r--s 00021000 08:01 2622543                    /home/pop/.m2/repository/com/amazonaws/aws-java-sdk-kinesis/1.10.12/aws-java-sdk-kinesis-1.10.12.jar
7fe534a71000-7fe534a84000 r--s 000a9000 08:01 2622542                    /home/pop/.m2/repository/com/amazonaws/aws-java-sdk-cloudfront/1.10.12/aws-java-sdk-cloudfront-1.10.12.jar
7fe534a84000-7fe534a89000 r--s 0002e000 08:01 2622540                    /home/pop/.m2/repository/com/amazonaws/aws-java-sdk-cloudformation/1.10.12/aws-java-sdk-cloudformation-1.10.12.jar
7fe534a89000-7fe534a8f000 r--s 00035000 08:01 2622537                    /home/pop/.m2/repository/com/amazonaws/aws-java-sdk-directconnect/1.10.12/aws-java-sdk-directconnect-1.10.12.jar
7fe534a8f000-7fe534a95000 r--s 00033000 08:01 2622536                    /home/pop/.m2/repository/com/amazonaws/aws-java-sdk-cognitosync/1.10.12/aws-java-sdk-cognitosync-1.10.12.jar
7fe534a95000-7fe534a9a000 r--s 00037000 08:01 2622532                    /home/pop/.m2/repository/com/amazonaws/aws-java-sdk-cognitoidentity/1.10.12/aws-java-sdk-cognitoidentity-1.10.12.jar
7fe534a9a000-7fe534a9f000 r--s 00034000 08:01 2622531                    /home/pop/.m2/repository/com/amazonaws/aws-java-sdk-logs/1.10.12/aws-java-sdk-logs-1.10.12.jar
7fe534a9f000-7fe534aa3000 r--s 00020000 08:01 2622528                    /home/pop/.m2/repository/com/amazonaws/aws-java-sdk-cloudwatch/1.10.12/aws-java-sdk-cloudwatch-1.10.12.jar
7fe534aa3000-7fe534aa7000 r--s 0001b000 08:01 2622525                    /home/pop/.m2/repository/com/amazonaws/aws-java-sdk-cloudtrail/1.10.12/aws-java-sdk-cloudtrail-1.10.12.jar
7fe534aa7000-7fe534aad000 r--s 00032000 08:01 2622526                    /home/pop/.m2/repository/com/amazonaws/aws-java-sdk-sns/1.10.12/aws-java-sdk-sns-1.10.12.jar
7fe534aad000-7fe534abe000 r--s 00107000 08:01 2622524                    /home/pop/.m2/repository/com/amazonaws/aws-java-sdk-dynamodb/1.10.12/aws-java-sdk-dynamodb-1.10.12.jar
7fe534abe000-7fe534ae5000 r--s 001ea000 08:01 2622523                    /home/pop/.m2/repository/com/amazonaws/aws-java-sdk-ec2/1.10.12/aws-java-sdk-ec2-1.10.12.jar
7fe534ae5000-7fe534aec000 r--s 0004a000 08:01 2622520                    /home/pop/.m2/repository/com/amazonaws/aws-java-sdk-elastictranscoder/1.10.12/aws-java-sdk-elastictranscoder-1.10.12.jar
7fe534aec000-7fe534af7000 r--s 00069000 08:01 2622515                    /home/pop/.m2/repository/com/amazonaws/aws-java-sdk-elasticache/1.10.12/aws-java-sdk-elasticache-1.10.12.jar
7fe534af7000-7fe534aff000 r--s 00056000 08:01 2622514                    /home/pop/.m2/repository/com/amazonaws/aws-java-sdk-emr/1.10.12/aws-java-sdk-emr-1.10.12.jar
7fe534aff000-7fe534b09000 r--s 00050000 08:01 2622516                    /home/pop/.m2/repository/com/amazonaws/aws-java-sdk-elasticloadbalancing/1.10.12/aws-java-sdk-elasticloadbalancing-1.10.12.jar
7fe534b09000-7fe534b0f000 r--s 00036000 08:01 2622513                    /home/pop/.m2/repository/com/amazonaws/aws-java-sdk-datapipeline/1.10.12/aws-java-sdk-datapipeline-1.10.12.jar
7fe534b0f000-7fe534b26000 r--s 000ca000 08:01 2622508                    /home/pop/.m2/repository/com/amazonaws/aws-java-sdk-iam/1.10.12/aws-java-sdk-iam-1.10.12.jar
7fe534b26000-7fe534b2e000 r--s 00052000 08:01 2622507                    /home/pop/.m2/repository/com/amazonaws/aws-java-sdk-glacier/1.10.12/aws-java-sdk-glacier-1.10.12.jar
7fe534b2e000-7fe534b37000 r--s 00086000 08:01 2622505                    /home/pop/.m2/repository/com/amazonaws/aws-java-sdk-elasticbeanstalk/1.10.12/aws-java-sdk-elasticbeanstalk-1.10.12.jar
7fe534b37000-7fe534b49000 r--s 0009d000 08:01 2622504                    /home/pop/.m2/repository/com/amazonaws/aws-java-sdk-redshift/1.10.12/aws-java-sdk-redshift-1.10.12.jar
7fe534b49000-7fe534b5c000 r--s 000c7000 08:01 2622503                    /home/pop/.m2/repository/com/amazonaws/aws-java-sdk-rds/1.10.12/aws-java-sdk-rds-1.10.12.jar
7fe534b5c000-7fe534b62000 r--s 00037000 08:01 2622500                    /home/pop/.m2/repository/com/amazonaws/aws-java-sdk-sqs/1.10.12/aws-java-sdk-sqs-1.10.12.jar
7fe534b62000-7fe534b66000 r--s 00014000 08:01 2622496                    /home/pop/.m2/repository/com/amazonaws/aws-java-sdk-sts/1.10.12/aws-java-sdk-sts-1.10.12.jar
7fe534b66000-7fe534b6a000 r--s 0001c000 08:01 2622495                    /home/pop/.m2/repository/com/amazonaws/aws-java-sdk-importexport/1.10.12/aws-java-sdk-importexport-1.10.12.jar
7fe534b6a000-7fe534b77000 r--s 00085000 08:01 1836733                    /home/pop/.m2/repository/com/amazonaws/aws-java-sdk-s3/1.10.12/aws-java-sdk-s3-1.10.12.jar
7fe534b77000-7fe534b85000 r--s 00092000 08:01 2622494                    /home/pop/.m2/repository/com/amazonaws/aws-java-sdk-route53/1.10.12/aws-java-sdk-route53-1.10.12.jar
7fe534b85000-7fe534b91000 r--s 00077000 08:01 2622491                    /home/pop/.m2/repository/com/amazonaws/aws-java-sdk-storagegateway/1.10.12/aws-java-sdk-storagegateway-1.10.12.jar
7fe534b91000-7fe534b9e000 r--s 0008c000 08:01 2622489                    /home/pop/.m2/repository/com/amazonaws/aws-java-sdk-simpleworkflow/1.10.12/aws-java-sdk-simpleworkflow-1.10.12.jar
7fe534b9e000-7fe534ba2000 r--s 0001c000 08:01 2622487                    /home/pop/.m2/repository/com/amazonaws/aws-java-sdk-simpledb/1.10.12/aws-java-sdk-simpledb-1.10.12.jar
7fe534ba2000-7fe534ba8000 r--s 00040000 08:01 2622486                    /home/pop/.m2/repository/com/amazonaws/aws-java-sdk-support/1.10.12/aws-java-sdk-support-1.10.12.jar
7fe534ba8000-7fe534ba9000 r--s 00000000 08:01 2622484                    /home/pop/.m2/repository/com/amazonaws/aws-java-sdk/1.10.12/aws-java-sdk-1.10.12.jar
7fe534ba9000-7fe534bc0000 r--s 000d8000 08:01 1706335                    /home/pop/.m2/repository/org/springframework/spring-context/4.0.7.RELEASE/spring-context-4.0.7.RELEASE.jar
7fe534bc0000-7fe534bcc000 r--s 00098000 08:01 1706344                    /home/pop/.m2/repository/org/springframework/spring-beans/4.0.7.RELEASE/spring-beans-4.0.7.RELEASE.jar
7fe534bcc000-7fe534bd0000 r--s 0001e000 08:01 2236848                    /home/pop/.m2/repository/org/springframework/spring-context-support/4.0.7.RELEASE/spring-context-support-4.0.7.RELEASE.jar
7fe534bd0000-7fe534be6000 r--s 001ef000 08:01 1720983                    /home/pop/.m2/repository/com/itextpdf/itextpdf/5.5.0/itextpdf-5.5.0.jar
7fe534be6000-7fe534beb000 r--s 00033000 08:01 1720982                    /home/pop/.m2/repository/com/itextpdf/tool/xmlworker/5.5.0/xmlworker-5.5.0.jar
7fe534beb000-7fe534bed000 r--s 0025c000 08:01 1070719                    /home/pop/.m2/repository/net/sf/jasperreports/jasperreports-fonts/6.0.0/jasperreports-fonts-6.0.0.jar
7fe534bed000-7fe534c50000 r--s 00a62000 08:01 1720981                    /home/pop/.m2/repository/com/ibm/icu/icu4j/57.1/icu4j-57.1.jar
7fe534c50000-7fe534c58000 r--s 0007d000 08:01 1706480                    /home/pop/.m2/repository/com/google/zxing/core/3.2.1/core-3.2.1.jar
7fe534c58000-7fe534c60000 r--s 00065000 08:01 1070723                    /home/pop/.m2/repository/org/olap4j/olap4j/0.9.7.309-JS-3/olap4j-0.9.7.309-JS-3.jar
7fe534c60000-7fe534c61000 r--s 00006000 08:01 1070716                    /home/pop/.m2/repository/jakarta-regexp/jakarta-regexp/1.4/jakarta-regexp-1.4.jar
7fe534c61000-7fe534c63000 r--s 0000a000 08:01 1070715                    /home/pop/.m2/repository/org/apache/lucene/lucene-sandbox/4.5.1/lucene-sandbox-4.5.1.jar
7fe534c63000-7fe534c69000 r--s 0002d000 08:01 1070713                    /home/pop/.m2/repository/org/apache/lucene/lucene-queries/4.5.1/lucene-queries-4.5.1.jar
7fe534c69000-7fe534c72000 r--s 00055000 08:01 1070712                    /home/pop/.m2/repository/org/apache/lucene/lucene-queryparser/4.5.1/lucene-queryparser-4.5.1.jar
7fe534c72000-7fe534c82000 r--s 00174000 08:01 930525                     /home/pop/.m2/repository/org/apache/lucene/lucene-analyzers-common/4.5.1/lucene-analyzers-common-4.5.1.jar
7fe534c82000-7fe534ca8000 r--s 0020b000 08:01 930524                     /home/pop/.m2/repository/org/apache/lucene/lucene-core/4.5.1/lucene-core-4.5.1.jar
7fe534ca8000-7fe534caa000 r--s 00007000 08:01 1844878                    /home/pop/.m2/repository/com/fasterxml/jackson/core/jackson-annotations/2.1.4/jackson-annotations-2.1.4.jar
7fe534caa000-7fe534cbb000 r--s 000d2000 08:01 1844877                    /home/pop/.m2/repository/com/fasterxml/jackson/core/jackson-databind/2.1.4/jackson-databind-2.1.4.jar
7fe534cbb000-7fe534cbf000 r--s 0002f000 08:01 1844876                    /home/pop/.m2/repository/com/fasterxml/jackson/core/jackson-core/2.1.4/jackson-core-2.1.4.jar
7fe534cbf000-7fe534cc1000 r--s 00004000 08:01 1844874                    /home/pop/.m2/repository/javax/xml/stream/stax-api/1.0-2/stax-api-1.0-2.jar
7fe534cc1000-7fe534cc3000 r--s 00005000 08:01 930519                     /home/pop/.m2/repository/stax/stax-api/1.0.1/stax-api-1.0.1.jar
7fe534cc3000-7fe534cc6000 r--s 00029000 08:01 930518                     /home/pop/.m2/repository/stax/stax/1.2.0/stax-1.2.0.jar
7fe534cc6000-7fe534cc7000 r--s 00000000 08:01 1844872                    /home/pop/.m2/repository/javax/inject/javax.inject/1/javax.inject-1.jar
7fe534cc7000-7fe534cca000 r--s 0000a000 08:01 1720978                    /home/pop/.m2/repository/org/codehaus/castor/castor-core/1.3.3/castor-core-1.3.3.jar
7fe534cca000-7fe534cdb000 r--s 000c5000 08:01 1720977                    /home/pop/.m2/repository/org/codehaus/castor/castor-xml/1.3.3/castor-xml-1.3.3.jar
7fe534cdb000-7fe534cea000 r--s 001b0000 08:01 930516                     /home/pop/.m2/repository/org/eclipse/jdt/core/compiler/ecj/4.3.1/ecj-4.3.1.jar
7fe534cea000-7fe534cfb000 r--s 0016e000 08:01 930511                     /home/pop/.m2/repository/org/jfree/jfreechart/1.0.19/jfreechart-1.0.19.jar
7fe534cfb000-7fe534d01000 r--s 0004b000 08:01 930510                     /home/pop/.m2/repository/org/jfree/jcommon/1.0.23/jcommon-1.0.23.jar
7fe534d01000-7fe534d05000 r--s 0002b000 08:01 930507                     /home/pop/.m2/repository/org/bouncycastle/bcmail-jdk14/1.38/bcmail-jdk14-1.38.jar
7fe534d05000-7fe534d26000 r--s 0015a000 08:01 930506                     /home/pop/.m2/repository/org/bouncycastle/bcprov-jdk14/1.38/bcprov-jdk14-1.38.jar
7fe534d26000-7fe534d27000 r--s 00005000 08:01 930503                     /home/pop/.m2/repository/org/bouncycastle/bctsp-jdk14/1.38/bctsp-jdk14-1.38.jar
7fe534d27000-7fe534d48000 r--s 0015a000 08:01 930502                     /home/pop/.m2/repository/bouncycastle/bcprov-jdk14/138/bcprov-jdk14-138.jar
7fe534d48000-7fe534d4c000 r--s 0002b000 08:01 930504                     /home/pop/.m2/repository/bouncycastle/bcmail-jdk14/138/bcmail-jdk14-138.jar
7fe534d4c000-7fe534d59000 r--s 00108000 08:01 1720996                    /home/pop/.m2/repository/com/lowagie/itext/2.1.7.js5/itext-2.1.7.js5.jar
7fe534d59000-7fe534d5b000 r--s 0000d000 08:01 2752587                    /home/pop/.m2/repository/commons-logging/commons-logging/1.1.1/commons-logging-1.1.1.jar
7fe534d5b000-7fe534d61000 r--s 0002b000 08:01 2636546                    /home/pop/.m2/repository/commons-digester/commons-digester/2.1/commons-digester-2.1.jar
7fe534d61000-7fe534d6e000 r--s 00083000 08:01 2636544                    /home/pop/.m2/repository/commons-collections/commons-collections/3.2.2/commons-collections-3.2.2.jar
7fe534d6e000-7fe534d73000 r--s 00034000 08:01 2636545                    /home/pop/.m2/repository/commons-beanutils/commons-beanutils/1.9.0/commons-beanutils-1.9.0.jar
7fe534d73000-7fe534dd6000 r--s 004ee000 08:01 930501                     /home/pop/.m2/repository/net/sf/jasperreports/jasperreports/6.4.0/jasperreports-6.4.0.jar
7fe534dd6000-7fe534fd6000 rw-p 00000000 00:00 0 
7fe534fd6000-7fe5351d6000 rw-p 00000000 00:00 0 
7fe5351d6000-7fe535250000 r--s 010f7000 08:01 5383840                    /usr/lib/jvm/java-8-oracle/lib/tools.jar
7fe535250000-7fe535253000 r--s 0001b000 08:01 1836916                    /home/pop/.m2/repository/junit/junit/3.8.2/junit-3.8.2.jar
7fe535253000-7fe535261000 r--s 0008f000 08:01 1706561                    /home/pop/.m2/repository/com/google/collections/google-collections/1.0/google-collections-1.0.jar
7fe535261000-7fe535262000 r--s 0000a000 08:01 1836915                    /home/pop/.m2/repository/commons-logging/commons-logging-api/1.1/commons-logging-api-1.1.jar
7fe535262000-7fe535269000 r--s 00051000 08:01 2753451                    /home/pop/.m2/repository/log4j/log4j/1.2.12/log4j-1.2.12.jar
7fe535269000-7fe53526d000 r--s 0001d000 08:01 1445964                    /home/pop/.m2/repository/org/apache/xbean/xbean-reflect/3.4/xbean-reflect-3.4.jar
7fe53526d000-7fe53526e000 r--s 00004000 08:01 2497325                    /home/pop/.m2/repository/org/codehaus/plexus/plexus-compiler-javac/2.2/plexus-compiler-javac-2.2.jar
7fe53526e000-7fe535270000 r--s 00000000 08:01 2497326                    /home/pop/.m2/repository/org/codehaus/plexus/plexus-compiler-manager/2.2/plexus-compiler-manager-2.2.jar
7fe535270000-7fe535272000 r--s 00005000 08:01 2497324                    /home/pop/.m2/repository/org/codehaus/plexus/plexus-compiler-api/2.2/plexus-compiler-api-2.2.jar
7fe535272000-7fe535274000 r--s 00002000 08:01 2753446                    /home/pop/.m2/repository/org/apache/maven/shared/maven-shared-incremental/1.1/maven-shared-incremental-1.1.jar
7fe535274000-7fe535276000 r--s 00006000 08:01 1706558                    /home/pop/.m2/repository/com/google/code/findbugs/jsr305/2.0.1/jsr305-2.0.1.jar
7fe535276000-7fe535279000 r--s 00023000 08:01 2753445                    /home/pop/.m2/repository/org/apache/maven/shared/maven-shared-utils/0.1/maven-shared-utils-0.1.jar
7fe535279000-7fe53527d000 r--s 00030000 08:01 1976788                    /home/pop/.m2/repository/org/codehaus/plexus/plexus-utils/1.5.1/plexus-utils-1.5.1.jar
7fe53527d000-7fe53527f000 r--s 00009000 08:01 1331129                    /home/pop/.m2/repository/org/apache/maven/plugins/maven-compiler-plugin/3.1/maven-compiler-plugin-3.1.jar
7fe53527f000-7fe535281000 r--s 0000d000 08:01 2493223                    /home/pop/.m2/repository/org/codehaus/plexus/plexus-interpolation/1.13/plexus-interpolation-1.13.jar
7fe535281000-7fe535282000 r--s 00001000 08:01 2493222                    /home/pop/.m2/repository/org/sonatype/plexus/plexus-build-api/0.0.4/plexus-build-api-0.0.4.jar
7fe535282000-7fe535284000 r--s 00009000 08:01 2493221                    /home/pop/.m2/repository/org/apache/maven/shared/maven-filtering/1.0/maven-filtering-1.0.jar
7fe535284000-7fe535285000 r--s 00001000 08:01 2493213                    /home/pop/.m2/repository/org/apache/maven/doxia/doxia-sink-api/1.0-alpha-7/doxia-sink-api-1.0-alpha-7.jar
7fe535285000-7fe535286000 r--s 00002000 08:01 2493216                    /home/pop/.m2/repository/org/apache/maven/reporting/maven-reporting-api/2.0.6/maven-reporting-api-2.0.6.jar
7fe535286000-7fe535288000 r--s 00005000 08:01 1052286                    /home/pop/.m2/repository/org/apache/maven/plugins/maven-resources-plugin/2.5/maven-resources-plugin-2.5.jar
7fe535288000-7fe535296000 r--s 0007f000 08:01 2636616                    /home/pop/.m2/repository/commons-collections/commons-collections/3.2.1/commons-collections-3.2.1.jar
7fe535296000-7fe53529b000 r--s 00041000 08:01 2491173                    /home/pop/.m2/repository/commons-lang/commons-lang/2.6/commons-lang-2.6.jar
7fe53529b000-7fe53529d000 r--s 00006000 08:01 2497302                    /home/pop/.m2/repository/org/apache/maven/shared/maven-invoker/2.0.11/maven-invoker-2.0.11.jar
7fe53529d000-7fe53529f000 r--s 00006000 08:01 2497299                    /home/pop/.m2/repository/org/apache/maven/shared/maven-common-artifact-filters/1.4/maven-common-artifact-filters-1.4.jar
7fe53529f000-7fe5352a1000 r--s 0000c000 08:01 2636612                    /home/pop/.m2/repository/org/apache/maven/shared/maven-dependency-tree/2.0/maven-dependency-tree-2.0.jar
7fe5352a1000-7fe5352a3000 r--s 00000000 08:01 1706557                    /home/pop/.m2/repository/org/codehaus/plexus/plexus-component-annotations/1.5.5/plexus-component-annotations-1.5.5.jar
7fe5352a3000-7fe5352a4000 r--s 0000a000 08:01 2636611                    /home/pop/.m2/repository/asm/asm/3.3.1/asm-3.3.1.jar
7fe5352a4000-7fe5352a6000 r--s 00005000 08:01 2636610                    /home/pop/.m2/repository/org/apache/maven/shared/maven-dependency-analyzer/1.3/maven-dependency-analyzer-1.3.jar
7fe5352a6000-7fe5352a9000 r--s 0000c000 08:01 2497298                    /home/pop/.m2/repository/org/codehaus/plexus/plexus-io/2.0.6/plexus-io-2.0.6.jar
7fe5352a9000-7fe5352ac000 r--s 0001b000 08:01 1836739                    /home/pop/.m2/repository/junit/junit/3.8.1/junit-3.8.1.jar
7fe5352ac000-7fe5352ae000 r--s 00008000 08:01 2636607                    /home/pop/.m2/repository/org/apache/maven/shared/maven-shared-io/1.1/maven-shared-io-1.1.jar
7fe5352ae000-7fe5352b0000 r--s 00008000 08:01 2636606                    /home/pop/.m2/repository/org/apache/maven/shared/file-management/1.2.1/file-management-1.2.1.jar
7fe5352b0000-7fe5352b4000 r--s 00035000 08:01 1845552                    /home/pop/.m2/repository/org/codehaus/plexus/plexus-utils/3.0.9/plexus-utils-3.0.9.jar
7fe5352b4000-7fe5352b9000 r--s 00029000 08:01 2497295                    /home/pop/.m2/repository/org/codehaus/plexus/plexus-archiver/2.2/plexus-archiver-2.2.jar
7fe5352b9000-7fe5352bb000 r--s 00004000 08:01 2497294                    /home/pop/.m2/repository/org/apache/maven/doxia/doxia-module-xhtml/1.0/doxia-module-xhtml-1.0.jar
7fe5352bb000-7fe5352bc000 r--s 00006000 08:01 2497290                    /home/pop/.m2/repository/org/apache/maven/doxia/doxia-module-xdoc/1.0/doxia-module-xdoc-1.0.jar
7fe5352bc000-7fe5352bd000 r--s 00004000 08:01 2497289                    /home/pop/.m2/repository/org/apache/maven/doxia/doxia-module-fml/1.0/doxia-module-fml-1.0.jar
7fe5352bd000-7fe5352bf000 r--s 0000a000 08:01 2497288                    /home/pop/.m2/repository/org/apache/maven/doxia/doxia-module-apt/1.0/doxia-module-apt-1.0.jar
7fe5352bf000-7fe5352c7000 r--s 00058000 08:01 1070729                    /home/pop/.m2/repository/org/apache/velocity/velocity/1.5/velocity-1.5.jar
7fe5352c7000-7fe5354c7000 rw-p 00000000 00:00 0 
7fe5354c7000-7fe5354d8000 r-xp 00000000 08:01 5386555                    /usr/lib/jvm/java-8-oracle/jre/lib/amd64/libnio.so
7fe5354d8000-7fe5356d7000 ---p 00011000 08:01 5386555                    /usr/lib/jvm/java-8-oracle/jre/lib/amd64/libnio.so
7fe5356d7000-7fe5356d8000 rw-p 00010000 08:01 5386555                    /usr/lib/jvm/java-8-oracle/jre/lib/amd64/libnio.so
7fe5356d8000-7fe5356ee000 r-xp 00000000 08:01 5386530                    /usr/lib/jvm/java-8-oracle/jre/lib/amd64/libnet.so
7fe5356ee000-7fe5358ee000 ---p 00016000 08:01 5386530                    /usr/lib/jvm/java-8-oracle/jre/lib/amd64/libnet.so
7fe5358ee000-7fe5358ef000 rw-p 00016000 08:01 5386530                    /usr/lib/jvm/java-8-oracle/jre/lib/amd64/libnet.so
7fe5358ef000-7fe5358f2000 ---p 00000000 00:00 0 
7fe5358f2000-7fe535b28000 rw-p 00000000 00:00 0 
7fe535b28000-7fe535d28000 rw-p 00000000 00:00 0 
7fe535d28000-7fe535d29000 ---p 00000000 00:00 0 
7fe535d29000-7fe535e29000 rw-p 00000000 00:00 0 
7fe535e29000-7fe535e2c000 ---p 00000000 00:00 0 
7fe535e2c000-7fe535f2a000 rw-p 00000000 00:00 0 
7fe535f2a000-7fe535f2d000 ---p 00000000 00:00 0 
7fe535f2d000-7fe53602b000 rw-p 00000000 00:00 0 
7fe53602b000-7fe53602e000 ---p 00000000 00:00 0 
7fe53602e000-7fe53612c000 rw-p 00000000 00:00 0 
7fe53612c000-7fe53612f000 ---p 00000000 00:00 0 
7fe53612f000-7fe53622d000 rw-p 00000000 00:00 0 
7fe53622d000-7fe536230000 ---p 00000000 00:00 0 
7fe536230000-7fe53632e000 rw-p 00000000 00:00 0 
7fe53632e000-7fe536616000 r--p 00000000 08:01 5384286                    /usr/lib/locale/locale-archive
7fe536616000-7fe536619000 ---p 00000000 00:00 0 
7fe536619000-7fe536717000 rw-p 00000000 00:00 0 
7fe536717000-7fe53671a000 ---p 00000000 00:00 0 
7fe53671a000-7fe536818000 rw-p 00000000 00:00 0 
7fe536818000-7fe536819000 ---p 00000000 00:00 0 
7fe536819000-7fe537626000 rw-p 00000000 00:00 0 
7fe537626000-7fe537800000 r--s 03d4d000 08:01 5386522                    /usr/lib/jvm/java-8-oracle/jre/lib/rt.jar
7fe537800000-7fe538000000 rw-p 00000000 00:00 0 
7fe538000000-7fe538021000 rw-p 00000000 00:00 0 
7fe538021000-7fe53c000000 ---p 00000000 00:00 0 
7fe53c000000-7fe53c001000 r--s 0000b000 08:01 2636604                    /home/pop/.m2/repository/org/apache/maven/doxia/doxia-decoration-model/1.0/doxia-decoration-model-1.0.jar
7fe53c001000-7fe53c002000 r--s 00001000 08:01 1721021                    /home/pop/.m2/repository/org/codehaus/plexus/plexus-velocity/1.1.7/plexus-velocity-1.1.7.jar
7fe53c002000-7fe53c003000 r--s 00002000 08:01 1721020                    /home/pop/.m2/repository/org/codehaus/plexus/plexus-i18n/1.0-beta-7/plexus-i18n-1.0-beta-7.jar
7fe53c003000-7fe53c005000 r--s 0000a000 08:01 2636601                    /home/pop/.m2/repository/org/apache/maven/doxia/doxia-site-renderer/1.0/doxia-site-renderer-1.0.jar
7fe53c005000-7fe53c006000 r--s 00002000 08:01 2497286                    /home/pop/.m2/repository/org/apache/maven/doxia/doxia-sink-api/1.0/doxia-sink-api-1.0.jar
7fe53c006000-7fe53c00b000 r--s 00016000 08:01 1836740                    /home/pop/.m2/repository/xml-apis/xml-apis/1.0.b2/xml-apis-1.0.b2.jar
7fe53c00b000-7fe53c00d000 r--s 0000e000 08:01 2636600                    /home/pop/.m2/repository/oro/oro/2.0.8/oro-2.0.8.jar
7fe53c00d000-7fe53c00f000 r--s 00008000 08:01 1976756                    /home/pop/.m2/repository/commons-logging/commons-logging/1.0.4/commons-logging-1.0.4.jar
7fe53c00f000-7fe53c013000 r--s 00026000 08:01 2622970                    /home/pop/.m2/repository/commons-digester/commons-digester/1.6/commons-digester-1.6.jar
7fe53c013000-7fe53c018000 r--s 0002a000 08:01 2622968                    /home/pop/.m2/repository/commons-beanutils/commons-beanutils/1.7.0/commons-beanutils-1.7.0.jar
7fe53c018000-7fe53c01b000 r--s 00014000 08:01 2622967                    /home/pop/.m2/repository/commons-validator/commons-validator/1.2.0/commons-validator-1.2.0.jar
7fe53c01b000-7fe53c01e000 r--s 00018000 08:01 1721018                    /home/pop/.m2/repository/commons-io/commons-io/1.4/commons-io-1.4.jar
7fe53c01e000-7fe53c020000 r--s 00009000 08:01 2497282                    /home/pop/.m2/repository/org/apache/maven/shared/maven-doxia-tools/1.0.2/maven-doxia-tools-1.0.2.jar
7fe53c020000-7fe53c023000 r--s 0000b000 08:01 2497281                    /home/pop/.m2/repository/org/apache/maven/doxia/doxia-core/1.0/doxia-core-1.0.jar
7fe53c023000-7fe53c025000 r--s 00004000 08:01 2636598                    /home/pop/.m2/repository/org/apache/maven/reporting/maven-reporting-impl/2.0.5/maven-reporting-impl-2.0.5.jar
7fe53c025000-7fe53c026000 r--s 00002000 08:01 2497280                    /home/pop/.m2/repository/org/apache/maven/reporting/maven-reporting-api/3.0/maven-reporting-api-3.0.jar
7fe53c026000-7fe53c028000 r--s 00002000 08:01 2493214                    /home/pop/.m2/repository/org/codehaus/plexus/plexus-interactivity-api/1.0-alpha-4/plexus-interactivity-api-1.0-alpha-4.jar
7fe53c028000-7fe53c02a000 r--s 00006000 08:01 2493215                    /home/pop/.m2/repository/commons-cli/commons-cli/1.0/commons-cli-1.0.jar
7fe53c02a000-7fe53c02d000 r--s 00021000 08:01 930292                     /home/pop/.m2/repository/org/apache/maven/plugins/maven-dependency-plugin/2.6/maven-dependency-plugin-2.6.jar
7fe53c02d000-7fe53c031000 r--s 00033000 08:01 2493212                    /home/pop/.m2/repository/org/codehaus/plexus/plexus-utils/2.0.5/plexus-utils-2.0.5.jar
7fe53c031000-7fe53c032000 r--s 00005000 08:01 1316579                    /home/pop/.m2/repository/org/apache/maven/plugins/maven-clean-plugin/2.4.1/maven-clean-plugin-2.4.1.jar
7fe53c032000-7fe53c033000 r--p 00000000 00:00 0 
7fe53c033000-7fe53c038000 r--s 0009a000 08:01 5386474                    /usr/lib/jvm/java-8-oracle/jre/lib/jsse.jar
7fe53c038000-7fe53c03a000 r--s 0000d000 08:01 7220273                    /home/pop/netbeans-8.2/java/maven-nblib/netbeans-eventspy.jar
7fe53c03a000-7fe53c040000 r--s 0003f000 08:01 7220279                    /home/pop/netbeans-8.2/java/maven/lib/maven-compat-3.0.5.jar
7fe53c040000-7fe53c042000 r--s 0000b000 08:01 7220263                    /home/pop/netbeans-8.2/java/maven/lib/maven-artifact-3.0.5.jar
7fe53c042000-7fe53c044000 r--s 00000000 08:01 7219934                    /home/pop/netbeans-8.2/java/maven/lib/plexus-component-annotations-1.5.5.jar
7fe53c044000-7fe53c045000 r--s 00002000 08:01 7220293                    /home/pop/netbeans-8.2/java/maven/lib/wagon-file-2.10.jar
7fe53c045000-7fe53c047000 r--s 0000c000 08:01 7220168                    /home/pop/netbeans-8.2/java/maven/lib/maven-aether-provider-3.0.5.jar
7fe53c047000-7fe53c049000 r--s 00009000 08:01 7220294                    /home/pop/netbeans-8.2/java/maven/lib/commons-cli-1.2.jar
7fe53c049000-7fe53c04c000 r--s 0001d000 08:01 7220277                    /home/pop/netbeans-8.2/java/maven/lib/aether-impl-1.13.1.jar
7fe53c04c000-7fe53c04e000 r--s 00002000 08:01 7220283                    /home/pop/netbeans-8.2/java/maven/lib/plexus-cipher-1.7.jar
7fe53c04e000-7fe53c050000 r--s 0000a000 08:01 7220265                    /home/pop/netbeans-8.2/java/maven/lib/maven-settings-3.0.5.jar
7fe53c050000-7fe53c07f000 r--s 001c8000 08:01 7220248                    /home/pop/netbeans-8.2/java/maven/lib/wagon-http-2.10-shaded.jar
7fe53c07f000-7fe540000000 rw-p 00000000 00:00 0 
7fe540000000-7fe540021000 rw-p 00000000 00:00 0 
7fe540021000-7fe544000000 ---p 00000000 00:00 0 
7fe544000000-7fe544002000 r--s 0000d000 08:01 7220205                    /home/pop/netbeans-8.2/java/maven/lib/plexus-interpolation-1.14.jar
7fe544002000-7fe544004000 r--s 00006000 08:01 7220121                    /home/pop/netbeans-8.2/java/maven/lib/aether-connector-wagon-1.13.1.jar
7fe544004000-7fe544005000 r--s 00003000 08:01 7220285                    /home/pop/netbeans-8.2/java/maven/lib/aether-spi-1.13.1.jar
7fe544005000-7fe54400d000 r--s 00050000 08:01 7220235                    /home/pop/netbeans-8.2/java/maven/lib/sisu-guice-3.1.0-no_aop.jar
7fe54400d000-7fe54400f000 r--s 0000b000 08:01 7220236                    /home/pop/netbeans-8.2/java/maven/lib/wagon-provider-api-2.10.jar
7fe54400f000-7fe544013000 r--s 00013000 08:01 7220284                    /home/pop/netbeans-8.2/java/maven/lib/aether-api-1.13.1.jar
7fe544013000-7fe544017000 r--s 00033000 08:01 7220276                    /home/pop/netbeans-8.2/java/maven/lib/plexus-utils-2.0.6.jar
7fe544017000-7fe54401a000 r--s 00008000 08:01 7220150                    /home/pop/netbeans-8.2/java/maven/lib/maven-settings-builder-3.0.5.jar
7fe54401a000-7fe544021000 r--s 0002b000 08:01 7220224                    /home/pop/netbeans-8.2/java/maven/lib/sisu-inject-plexus-2.3.0.jar
7fe544021000-7fe544025000 r--s 0001c000 08:01 7220278                    /home/pop/netbeans-8.2/java/maven/lib/aether-util-1.13.1.jar
7fe544025000-7fe544027000 r--s 00026000 08:01 7220282                    /home/pop/netbeans-8.2/java/maven/lib/maven-model-3.0.5.jar
7fe544027000-7fe544028000 r--s 00006000 08:01 7220204                    /home/pop/netbeans-8.2/java/maven/lib/plexus-sec-dispatcher-1.3.jar
7fe544028000-7fe544047000 r--s 00154000 08:01 7220291                    /home/pop/netbeans-8.2/java/maven/lib/sisu-guava-0.9.9.jar
7fe544047000-7fe544049000 r--s 00006000 08:01 7220055                    /home/pop/netbeans-8.2/java/maven/lib/maven-repository-metadata-3.0.5.jar
7fe544049000-7fe54404d000 r--s 00021000 08:01 7220203                    /home/pop/netbeans-8.2/java/maven/lib/maven-model-builder-3.0.5.jar
7fe54404d000-7fe544578000 rw-p 00000000 00:00 0 
7fe544578000-7fe544579000 ---p 00000000 00:00 0 
7fe544579000-7fe544679000 rw-p 00000000 00:00 0 
7fe544679000-7fe54467a000 ---p 00000000 00:00 0 
7fe54467a000-7fe54477a000 rw-p 00000000 00:00 0 
7fe54477a000-7fe54477b000 ---p 00000000 00:00 0 
7fe54477b000-7fe54487b000 rw-p 00000000 00:00 0 
7fe54487b000-7fe54487c000 ---p 00000000 00:00 0 
7fe54487c000-7fe5449a6000 rw-p 00000000 00:00 0 
7fe5449a6000-7fe544c17000 ---p 00000000 00:00 0 
7fe544c17000-7fe544c41000 rw-p 00000000 00:00 0 
7fe544c41000-7fe544eb1000 ---p 00000000 00:00 0 
7fe544eb1000-7fe544efc000 rw-p 00000000 00:00 0 
7fe544efc000-7fe544fff000 ---p 00000000 00:00 0 
7fe544fff000-7fe545000000 rw-p 00000000 00:00 0 
7fe545000000-7fe545e60000 rwxp 00000000 00:00 0 
7fe545e60000-7fe554000000 ---p 00000000 00:00 0 
7fe554000000-7fe555254000 rw-p 00000000 00:00 0 
7fe555254000-7fe558000000 ---p 00000000 00:00 0 
7fe558000000-7fe55800c000 r--s 0007d000 08:01 7220290                    /home/pop/netbeans-8.2/java/maven/lib/maven-core-3.0.5.jar
7fe55800c000-7fe55800d000 r--s 00002000 08:01 7220251                    /home/pop/netbeans-8.2/java/maven/lib/wagon-http-shared-2.10.jar
7fe55800d000-7fe558014000 r--s 0003f000 08:01 7220250                    /home/pop/netbeans-8.2/java/maven/lib/sisu-inject-bean-2.3.0.jar
7fe558014000-7fe558016000 r--s 0000b000 08:01 7220249                    /home/pop/netbeans-8.2/java/maven/lib/maven-plugin-api-3.0.5.jar
7fe558016000-7fe558136000 rw-p 00000000 00:00 0 
7fe558136000-7fe5584bc000 ---p 00000000 00:00 0 
7fe5584bc000-7fe5584d6000 r-xp 00000000 08:01 5386553                    /usr/lib/jvm/java-8-oracle/jre/lib/amd64/libzip.so
7fe5584d6000-7fe5586d6000 ---p 0001a000 08:01 5386553                    /usr/lib/jvm/java-8-oracle/jre/lib/amd64/libzip.so
7fe5586d6000-7fe5586d7000 rw-p 0001a000 08:01 5386553                    /usr/lib/jvm/java-8-oracle/jre/lib/amd64/libzip.so
7fe5586d7000-7fe5586e2000 r-xp 00000000 08:01 6958117                    /lib/x86_64-linux-gnu/libnss_files-2.26.so
7fe5586e2000-7fe5588e1000 ---p 0000b000 08:01 6958117                    /lib/x86_64-linux-gnu/libnss_files-2.26.so
7fe5588e1000-7fe5588e2000 r--p 0000a000 08:01 6958117                    /lib/x86_64-linux-gnu/libnss_files-2.26.so
7fe5588e2000-7fe5588e3000 rw-p 0000b000 08:01 6958117                    /lib/x86_64-linux-gnu/libnss_files-2.26.so
7fe5588e3000-7fe5588e9000 rw-p 00000000 00:00 0 
7fe5588e9000-7fe5588f4000 r-xp 00000000 08:01 6958119                    /lib/x86_64-linux-gnu/libnss_nis-2.26.so
7fe5588f4000-7fe558af3000 ---p 0000b000 08:01 6958119                    /lib/x86_64-linux-gnu/libnss_nis-2.26.so
7fe558af3000-7fe558af4000 r--p 0000a000 08:01 6958119                    /lib/x86_64-linux-gnu/libnss_nis-2.26.so
7fe558af4000-7fe558af5000 rw-p 0000b000 08:01 6958119                    /lib/x86_64-linux-gnu/libnss_nis-2.26.so
7fe558af5000-7fe558b0c000 r-xp 00000000 08:01 6958114                    /lib/x86_64-linux-gnu/libnsl-2.26.so
7fe558b0c000-7fe558d0b000 ---p 00017000 08:01 6958114                    /lib/x86_64-linux-gnu/libnsl-2.26.so
7fe558d0b000-7fe558d0c000 r--p 00016000 08:01 6958114                    /lib/x86_64-linux-gnu/libnsl-2.26.so
7fe558d0c000-7fe558d0d000 rw-p 00017000 08:01 6958114                    /lib/x86_64-linux-gnu/libnsl-2.26.so
7fe558d0d000-7fe558d0f000 rw-p 00000000 00:00 0 
7fe558d0f000-7fe558d17000 r-xp 00000000 08:01 6958115                    /lib/x86_64-linux-gnu/libnss_compat-2.26.so
7fe558d17000-7fe558f16000 ---p 00008000 08:01 6958115                    /lib/x86_64-linux-gnu/libnss_compat-2.26.so
7fe558f16000-7fe558f17000 r--p 00007000 08:01 6958115                    /lib/x86_64-linux-gnu/libnss_compat-2.26.so
7fe558f17000-7fe558f18000 rw-p 00008000 08:01 6958115                    /lib/x86_64-linux-gnu/libnss_compat-2.26.so
7fe558f18000-7fe558f43000 r-xp 00000000 08:01 5386580                    /usr/lib/jvm/java-8-oracle/jre/lib/amd64/libjava.so
7fe558f43000-7fe559142000 ---p 0002b000 08:01 5386580                    /usr/lib/jvm/java-8-oracle/jre/lib/amd64/libjava.so
7fe559142000-7fe559144000 rw-p 0002a000 08:01 5386580                    /usr/lib/jvm/java-8-oracle/jre/lib/amd64/libjava.so
7fe559144000-7fe559151000 r-xp 00000000 08:01 5386531                    /usr/lib/jvm/java-8-oracle/jre/lib/amd64/libverify.so
7fe559151000-7fe559351000 ---p 0000d000 08:01 5386531                    /usr/lib/jvm/java-8-oracle/jre/lib/amd64/libverify.so
7fe559351000-7fe559353000 rw-p 0000d000 08:01 5386531                    /usr/lib/jvm/java-8-oracle/jre/lib/amd64/libverify.so
7fe559353000-7fe55935a000 r-xp 00000000 08:01 6958124                    /lib/x86_64-linux-gnu/librt-2.26.so
7fe55935a000-7fe559559000 ---p 00007000 08:01 6958124                    /lib/x86_64-linux-gnu/librt-2.26.so
7fe559559000-7fe55955a000 r--p 00006000 08:01 6958124                    /lib/x86_64-linux-gnu/librt-2.26.so
7fe55955a000-7fe55955b000 rw-p 00007000 08:01 6958124                    /lib/x86_64-linux-gnu/librt-2.26.so
7fe55955b000-7fe5596b0000 r-xp 00000000 08:01 6958111                    /lib/x86_64-linux-gnu/libm-2.26.so
7fe5596b0000-7fe5598af000 ---p 00155000 08:01 6958111                    /lib/x86_64-linux-gnu/libm-2.26.so
7fe5598af000-7fe5598b0000 r--p 00154000 08:01 6958111                    /lib/x86_64-linux-gnu/libm-2.26.so
7fe5598b0000-7fe5598b1000 rw-p 00155000 08:01 6958111                    /lib/x86_64-linux-gnu/libm-2.26.so
7fe5598b1000-7fe55a584000 r-xp 00000000 08:01 5386584                    /usr/lib/jvm/java-8-oracle/jre/lib/amd64/server/libjvm.so
7fe55a584000-7fe55a783000 ---p 00cd3000 08:01 5386584                    /usr/lib/jvm/java-8-oracle/jre/lib/amd64/server/libjvm.so
7fe55a783000-7fe55a85d000 rw-p 00cd2000 08:01 5386584                    /usr/lib/jvm/java-8-oracle/jre/lib/amd64/server/libjvm.so
7fe55a85d000-7fe55a8a8000 rw-p 00000000 00:00 0 
7fe55a8a8000-7fe55aa7e000 r-xp 00000000 08:01 6958107                    /lib/x86_64-linux-gnu/libc-2.26.so
7fe55aa7e000-7fe55ac7e000 ---p 001d6000 08:01 6958107                    /lib/x86_64-linux-gnu/libc-2.26.so
7fe55ac7e000-7fe55ac82000 r--p 001d6000 08:01 6958107                    /lib/x86_64-linux-gnu/libc-2.26.so
7fe55ac82000-7fe55ac84000 rw-p 001da000 08:01 6958107                    /lib/x86_64-linux-gnu/libc-2.26.so
7fe55ac84000-7fe55ac88000 rw-p 00000000 00:00 0 
7fe55ac88000-7fe55ac8b000 r-xp 00000000 08:01 6958110                    /lib/x86_64-linux-gnu/libdl-2.26.so
7fe55ac8b000-7fe55ae8a000 ---p 00003000 08:01 6958110                    /lib/x86_64-linux-gnu/libdl-2.26.so
7fe55ae8a000-7fe55ae8b000 r--p 00002000 08:01 6958110                    /lib/x86_64-linux-gnu/libdl-2.26.so
7fe55ae8b000-7fe55ae8c000 rw-p 00003000 08:01 6958110                    /lib/x86_64-linux-gnu/libdl-2.26.so
7fe55ae8c000-7fe55aea1000 r-xp 00000000 08:01 5383859                    /usr/lib/jvm/java-8-oracle/lib/amd64/jli/libjli.so
7fe55aea1000-7fe55b0a1000 ---p 00015000 08:01 5383859                    /usr/lib/jvm/java-8-oracle/lib/amd64/jli/libjli.so
7fe55b0a1000-7fe55b0a2000 rw-p 00015000 08:01 5383859                    /usr/lib/jvm/java-8-oracle/lib/amd64/jli/libjli.so
7fe55b0a2000-7fe55b0bc000 r-xp 00000000 08:01 6958122                    /lib/x86_64-linux-gnu/libpthread-2.26.so
7fe55b0bc000-7fe55b2bb000 ---p 0001a000 08:01 6958122                    /lib/x86_64-linux-gnu/libpthread-2.26.so
7fe55b2bb000-7fe55b2bc000 r--p 00019000 08:01 6958122                    /lib/x86_64-linux-gnu/libpthread-2.26.so
7fe55b2bc000-7fe55b2bd000 rw-p 0001a000 08:01 6958122                    /lib/x86_64-linux-gnu/libpthread-2.26.so
7fe55b2bd000-7fe55b2c1000 rw-p 00000000 00:00 0 
7fe55b2c1000-7fe55b2e8000 r-xp 00000000 08:01 6958099                    /lib/x86_64-linux-gnu/ld-2.26.so
7fe55b2e8000-7fe55b2ea000 r--s 0000a000 08:01 7220238                    /home/pop/netbeans-8.2/java/maven/boot/plexus-classworlds-2.4.jar
7fe55b2ea000-7fe55b3b6000 rw-p 00000000 00:00 0 
7fe55b3b6000-7fe55b3b9000 ---p 00000000 00:00 0 
7fe55b3b9000-7fe55b4b9000 rw-p 00000000 00:00 0 
7fe55b4b9000-7fe55b4ba000 r--s 0000a000 08:01 7220264                    /home/pop/netbeans-8.2/java/maven/lib/maven-embedder-3.0.5.jar
7fe55b4ba000-7fe55b4db000 rw-p 00000000 00:00 0 
7fe55b4db000-7fe55b4e3000 rw-s 00000000 08:01 5264193                    /tmp/hsperfdata_pop/27472
7fe55b4e3000-7fe55b4e4000 rw-p 00000000 00:00 0 
7fe55b4e4000-7fe55b4e5000 ---p 00000000 00:00 0 
7fe55b4e5000-7fe55b4e8000 rw-p 00000000 00:00 0 
7fe55b4e8000-7fe55b4e9000 r--p 00027000 08:01 6958099                    /lib/x86_64-linux-gnu/ld-2.26.so
7fe55b4e9000-7fe55b4ea000 rw-p 00028000 08:01 6958099                    /lib/x86_64-linux-gnu/ld-2.26.so
7fe55b4ea000-7fe55b4eb000 rw-p 00000000 00:00 0 
7ffc787d7000-7ffc787f8000 rw-p 00000000 00:00 0                          [stack]
7ffc787fb000-7ffc787fe000 r--p 00000000 00:00 0                          [vvar]
7ffc787fe000-7ffc78800000 r-xp 00000000 00:00 0                          [vdso]
ffffffffff600000-ffffffffff601000 r-xp 00000000 00:00 0                  [vsyscall]

VM Arguments:
jvm_args: -Dclassworlds.conf=/home/pop/netbeans-8.2/java/maven/bin/m2.conf -Dmaven.home=/home/pop/netbeans-8.2/java/maven 
java_command: org.codehaus.plexus.classworlds.launcher.Launcher -Dmaven.ext.class.path=/home/pop/netbeans-8.2/java/maven-nblib/netbeans-eventspy.jar clean install
java_class_path (initial): /home/pop/netbeans-8.2/java/maven/boot/plexus-classworlds-2.4.jar
Launcher Type: SUN_STANDARD

Environment Variables:
JAVA_HOME=/usr/lib/jvm/java-8-oracle
PATH=/usr/local/sbin:/usr/local/bin:/usr/sbin:/usr/bin:/sbin:/bin:/usr/games:/usr/local/games" :/snap/bin:/usr/lib/jvm/java-8-oracle/bin:/usr/lib/jvm/java-8-oracle/db/bin:/usr/lib/jvm/java-8-oracle/jre/bin
USERNAME=pop
LD_LIBRARY_PATH=/usr/lib/jvm/java-8-oracle/jre/lib/amd64:/usr/lib/jvm/java-8-oracle/jre/lib/i386:
SHELL=/bin/bash
DISPLAY=:1

Signal Handlers:
SIGSEGV: [libjvm.so+0xacba10], sa_mask[0]=11111111011111111101111111111110, sa_flags=SA_RESTART|SA_SIGINFO
SIGBUS: [libjvm.so+0xacba10], sa_mask[0]=11111111011111111101111111111110, sa_flags=SA_RESTART|SA_SIGINFO
SIGFPE: [libjvm.so+0x924ba0], sa_mask[0]=11111111011111111101111111111110, sa_flags=SA_RESTART|SA_SIGINFO
SIGPIPE: [libjvm.so+0x924ba0], sa_mask[0]=11111111011111111101111111111110, sa_flags=SA_RESTART|SA_SIGINFO
SIGXFSZ: [libjvm.so+0x924ba0], sa_mask[0]=11111111011111111101111111111110, sa_flags=SA_RESTART|SA_SIGINFO
SIGILL: [libjvm.so+0x924ba0], sa_mask[0]=11111111011111111101111111111110, sa_flags=SA_RESTART|SA_SIGINFO
SIGUSR1: SIG_DFL, sa_mask[0]=00000000000000000000000000000000, sa_flags=none
SIGUSR2: [libjvm.so+0x9263e0], sa_mask[0]=00100000000000000000000000000000, sa_flags=SA_RESTART|SA_SIGINFO
SIGHUP: [libjvm.so+0x9277e0], sa_mask[0]=11111111011111111101111111111110, sa_flags=SA_RESTART|SA_SIGINFO
SIGINT: SIG_IGN, sa_mask[0]=00000000000000000000000000000000, sa_flags=none
SIGTERM: [libjvm.so+0x9277e0], sa_mask[0]=11111111011111111101111111111110, sa_flags=SA_RESTART|SA_SIGINFO
SIGQUIT: [libjvm.so+0x9277e0], sa_mask[0]=11111111011111111101111111111110, sa_flags=SA_RESTART|SA_SIGINFO


---------------  S Y S T E M  ---------------

OS:DISTRIB_ID=Ubuntu
DISTRIB_RELEASE=17.10
DISTRIB_CODENAME=artful
DISTRIB_DESCRIPTION="Ubuntu 17.10"

uname:Linux 4.13.0-17-generic #20-Ubuntu SMP Mon Nov 6 10:04:08 UTC 2017 x86_64
libc:glibc 2.26 NPTL 2.26 
rlimit: STACK 8192k, CORE 0k, NPROC 31493, NOFILE 1048576, AS infinity
load average:8.54 2.33 1.12

/proc/meminfo:
MemTotal:        8188360 kB
MemFree:         4364768 kB
MemAvailable:    4271744 kB
Buffers:            1100 kB
Cached:           132284 kB
SwapCached:        14932 kB
Active:          3047356 kB
Inactive:         373664 kB
Active(anon):    3043364 kB
Inactive(anon):   337044 kB
Active(file):       3992 kB
Inactive(file):    36620 kB
Unevictable:          96 kB
Mlocked:              96 kB
SwapTotal:       2097148 kB
SwapFree:         815588 kB
Dirty:               144 kB
Writeback:            52 kB
AnonPages:       3254392 kB
Mapped:           210916 kB
Shmem:             92160 kB
Slab:             123304 kB
SReclaimable:      42704 kB
SUnreclaim:        80600 kB
KernelStack:       14976 kB
PageTables:        92180 kB
NFS_Unstable:          0 kB
Bounce:                0 kB
WritebackTmp:          0 kB
CommitLimit:     6191328 kB
Committed_AS:   13819012 kB
VmallocTotal:   34359738367 kB
VmallocUsed:           0 kB
VmallocChunk:          0 kB
HardwareCorrupted:     0 kB
AnonHugePages:         0 kB
ShmemHugePages:        0 kB
ShmemPmdMapped:        0 kB
CmaTotal:              0 kB
CmaFree:               0 kB
HugePages_Total:       0
HugePages_Free:        0
HugePages_Rsvd:        0
HugePages_Surp:        0
Hugepagesize:       2048 kB
DirectMap4k:      390612 kB
DirectMap2M:     7950336 kB
DirectMap1G:     1048576 kB


CPU:total 4 (initial active 4) (4 cores per cpu, 1 threads per core) family 23 model 1 stepping 1, cmov, cx8, fxsr, mmx, sse, sse2, sse3, ssse3, sse4.1, sse4.2, popcnt, avx, avx2, aes, clmul, mmxext, 3dnowpref, lzcnt, sse4a, tsc, tscinvbit, tscinv, bmi1

/proc/cpuinfo:
processor	: 0
vendor_id	: AuthenticAMD
cpu family	: 23
model		: 1
model name	: AMD Ryzen 3 1200 Quad-Core Processor
stepping	: 1
microcode	: 0x8001105
cpu MHz		: 3093.984
cache size	: 512 KB
physical id	: 0
siblings	: 4
core id		: 0
cpu cores	: 4
apicid		: 0
initial apicid	: 0
fpu		: yes
fpu_exception	: yes
cpuid level	: 13
wp		: yes
flags		: fpu vme de pse tsc msr pae mce cx8 apic sep mtrr pge mca cmov pat pse36 clflush mmx fxsr sse sse2 ht syscall nx mmxext fxsr_opt pdpe1gb rdtscp lm constant_tsc rep_good nopl nonstop_tsc cpuid extd_apicid aperfmperf pni pclmulqdq monitor ssse3 fma cx16 sse4_1 sse4_2 movbe popcnt aes xsave avx f16c rdrand lahf_lm cmp_legacy svm extapic cr8_legacy abm sse4a misalignsse 3dnowprefetch osvw skinit wdt tce topoext perfctr_core perfctr_nb bpext perfctr_l2 mwaitx hw_pstate vmmcall fsgsbase bmi1 avx2 smep bmi2 rdseed adx smap clflushopt sha_ni xsaveopt xsavec xgetbv1 xsaves clzero irperf arat npt lbrv svm_lock nrip_save tsc_scale vmcb_clean flushbyasid decodeassists pausefilter pfthreshold avic v_vmsave_vmload overflow_recov succor smca
bugs		: fxsave_leak sysret_ss_attrs null_seg
bogomips	: 6187.96
TLB size	: 2560 4K pages
clflush size	: 64
cache_alignment	: 64
address sizes	: 48 bits physical, 48 bits virtual
power management: ts ttp tm hwpstate eff_freq_ro [13] [14]

processor	: 1
vendor_id	: AuthenticAMD
cpu family	: 23
model		: 1
model name	: AMD Ryzen 3 1200 Quad-Core Processor
stepping	: 1
microcode	: 0x8001105
cpu MHz		: 3093.984
cache size	: 512 KB
physical id	: 0
siblings	: 4
core id		: 1
cpu cores	: 4
apicid		: 1
initial apicid	: 1
fpu		: yes
fpu_exception	: yes
cpuid level	: 13
wp		: yes
flags		: fpu vme de pse tsc msr pae mce cx8 apic sep mtrr pge mca cmov pat pse36 clflush mmx fxsr sse sse2 ht syscall nx mmxext fxsr_opt pdpe1gb rdtscp lm constant_tsc rep_good nopl nonstop_tsc cpuid extd_apicid aperfmperf pni pclmulqdq monitor ssse3 fma cx16 sse4_1 sse4_2 movbe popcnt aes xsave avx f16c rdrand lahf_lm cmp_legacy svm extapic cr8_legacy abm sse4a misalignsse 3dnowprefetch osvw skinit wdt tce topoext perfctr_core perfctr_nb bpext perfctr_l2 mwaitx hw_pstate vmmcall fsgsbase bmi1 avx2 smep bmi2 rdseed adx smap clflushopt sha_ni xsaveopt xsavec xgetbv1 xsaves clzero irperf arat npt lbrv svm_lock nrip_save tsc_scale vmcb_clean flushbyasid decodeassists pausefilter pfthreshold avic v_vmsave_vmload overflow_recov succor smca
bugs		: fxsave_leak sysret_ss_attrs null_seg
bogomips	: 6187.96
TLB size	: 2560 4K pages
clflush size	: 64
cache_alignment	: 64
address sizes	: 48 bits physical, 48 bits virtual
power management: ts ttp tm hwpstate eff_freq_ro [13] [14]

processor	: 2
vendor_id	: AuthenticAMD
cpu family	: 23
model		: 1
model name	: AMD Ryzen 3 1200 Quad-Core Processor
stepping	: 1
microcode	: 0x8001105
cpu MHz		: 3093.984
cache size	: 512 KB
physical id	: 0
siblings	: 4
core id		: 8
cpu cores	: 4
apicid		: 8
initial apicid	: 8
fpu		: yes
fpu_exception	: yes
cpuid level	: 13
wp		: yes
flags		: fpu vme de pse tsc msr pae mce cx8 apic sep mtrr pge mca cmov pat pse36 clflush mmx fxsr sse sse2 ht syscall nx mmxext fxsr_opt pdpe1gb rdtscp lm constant_tsc rep_good nopl nonstop_tsc cpuid extd_apicid aperfmperf pni pclmulqdq monitor ssse3 fma cx16 sse4_1 sse4_2 movbe popcnt aes xsave avx f16c rdrand lahf_lm cmp_legacy svm extapic cr8_legacy abm sse4a misalignsse 3dnowprefetch osvw skinit wdt tce topoext perfctr_core perfctr_nb bpext perfctr_l2 mwaitx hw_pstate vmmcall fsgsbase bmi1 avx2 smep bmi2 rdseed adx smap clflushopt sha_ni xsaveopt xsavec xgetbv1 xsaves clzero irperf arat npt lbrv svm_lock nrip_save tsc_scale vmcb_clean flushbyasid decodeassists pausefilter pfthreshold avic v_vmsave_vmload overflow_recov succor smca
bugs		: fxsave_leak sysret_ss_attrs null_seg
bogomips	: 6187.96
TLB size	: 2560 4K pages
clflush size	: 64
cache_alignment	: 64
address sizes	: 48 bits physical, 48 bits virtual
power management: ts ttp tm hwpstate eff_freq_ro [13] [14]

processor	: 3
vendor_id	: AuthenticAMD
cpu family	: 23
model		: 1
model name	: AMD Ryzen 3 1200 Quad-Core Processor
stepping	: 1
microcode	: 0x8001105
cpu MHz		: 3093.984
cache size	: 512 KB
physical id	: 0
siblings	: 4
core id		: 9
cpu cores	: 4
apicid		: 9
initial apicid	: 9
fpu		: yes
fpu_exception	: yes
cpuid level	: 13
wp		: yes
flags		: fpu vme de pse tsc msr pae mce cx8 apic sep mtrr pge mca cmov pat pse36 clflush mmx fxsr sse sse2 ht syscall nx mmxext fxsr_opt pdpe1gb rdtscp lm constant_tsc rep_good nopl nonstop_tsc cpuid extd_apicid aperfmperf pni pclmulqdq monitor ssse3 fma cx16 sse4_1 sse4_2 movbe popcnt aes xsave avx f16c rdrand lahf_lm cmp_legacy svm extapic cr8_legacy abm sse4a misalignsse 3dnowprefetch osvw skinit wdt tce topoext perfctr_core perfctr_nb bpext perfctr_l2 mwaitx hw_pstate vmmcall fsgsbase bmi1 avx2 smep bmi2 rdseed adx smap clflushopt sha_ni xsaveopt xsavec xgetbv1 xsaves clzero irperf arat npt lbrv svm_lock nrip_save tsc_scale vmcb_clean flushbyasid decodeassists pausefilter pfthreshold avic v_vmsave_vmload overflow_recov succor smca
bugs		: fxsave_leak sysret_ss_attrs null_seg
bogomips	: 6187.96
TLB size	: 2560 4K pages
clflush size	: 64
cache_alignment	: 64
address sizes	: 48 bits physical, 48 bits virtual
power management: ts ttp tm hwpstate eff_freq_ro [13] [14]



Memory: 4k page, physical 8188360k(4463684k free), swap 2097148k(859364k free)

vm_info: Java HotSpot(TM) 64-Bit Server VM (25.144-b01) for linux-amd64 JRE (1.8.0_144-b01), built on Jul 21 2017 21:57:33 by "java_re" with gcc 4.3.0 20080428 (Red Hat 4.3.0-8)

time: Wed Nov 29 16:48:35 2017
elapsed time: 9 seconds (0d 0h 0m 9s)

